{
  "project_info": {
    "project_number": "44114923518",
    "firebase_url": "https://free-food-2ccad.firebaseio.com",
    "project_id": "free-food-2ccad",
    "storage_bucket": "free-food-2ccad.appspot.com"
  },
  "client": [
    {
      "client_info": {
        "mobilesdk_app_id": "1:44114923518:android:a806387762327d53",
        "android_client_info": {
          "package_name": "com.austinfathman.firebasestorage"
        }
      },
      "oauth_client": [
        {
          "client_id": "44114923518-4oogmiupscrvd5pl4h2h3f8av5jkd0ei.apps.googleusercontent.com",
          "client_type": 1,
          "android_info": {
            "package_name": "com.austinfathman.firebasestorage",
            "certificate_hash": "c1d301170ebe5d267d8a9063736b305529466ebe"
          }
        },
        {
          "client_id": "44114923518-qekevqvooes1he6j4vdh45jqqaqrg8fh.apps.googleusercontent.com",
          "client_type": 3
        }
      ],
      "api_key": [
        {
          "current_key": "AIzaSyC0JFFWQsMxvZrcPKxgPa86ukmlycynK70"
        }
      ],
      "services": {
        "analytics_service": {
          "status": 1
        },
        "appinvite_service": {
          "status": 2,
          "other_platform_oauth_client": [
            {
              "client_id": "44114923518-qekevqvooes1he6j4vdh45jqqaqrg8fh.apps.googleusercontent.com",
              "client_type": 3
            }
          ]
        },
        "ads_service": {
          "status": 2
        }
      }
    }
  ],
  "configuration_version": "1"
}